{
    "bidirectional": true,
    "utilization": 1.0,

    "edges": [
        [
            "lbnl",
            "sunn",
            {
                "bndw": 100,
                "rtt": 1.8
            }
        ],
        [
            "sunn",
            "sacr",
            {
                "bndw": 100,
                "rtt": 2.7
            }
        ],
        [
            "sunn",
            "elpa",
            {
                "bndw": 100,
                "rtt": 24
            }
        ],
        [
            "sacr",
            "denv",
            {
                "bndw": 100,
                "rtt": 22
            }
        ],
        [
            "denv",
            "kans",
            {
                "bndw": 100,
                "rtt": 11
            }
        ],
        [
            "kans",
            "chic",
            {
                "bndw": 100,
                "rtt": 11
            }
        ],
        [
            "chic",
            "star",
            {
                "bndw": 100,
                "rtt": 1
            }
        ],
        [
            "star",
            "newy",
            {
                "bndw": 100,
                "rtt": 26
            }
        ],
        [
            "elpa",
            "hous",
            {
                "bndw": 100,
                "rtt": 15
            }
        ],
        [
            "hous",
            "nash",
            {
                "bndw": 100,
                "rtt": 16
            }
        ],
        [
            "hous",
            "kans",
            {
                "bndw": 100,
                "rtt": 14
            }
        ],
        [
            "nash",
            "atla",
            {
                "bndw": 100,
                "rtt": 6.5
            }
        ],
        [
            "nash",
            "chic",
            {
                "bndw": 100,
                "rtt": 12
            }
        ],
        [
            "atla",
            "wash",
            {
                "bndw": 100,
                "rtt": 13.2
            }
        ],
        [
            "wash",
            "aofa",
            {
                "bndw": 100,
                "rtt": 5.2
            }
        ],
        [
            "wash",
            "chic",
            {
                "bndw": 100,
                "rtt": 17.5
            }
        ],
        [
            "aofa",
            "newy",
            {
                "bndw": 100,
                "rtt": 1
            }
        ]
    ],
    "nodes": {
        "aofa": {
            "region": "nystate",
            "power_dynamic": 2.688,
            "power_static": 0.0,
            "pue": 1.0,
            "capacity": 10,
            "endpoint": true,
            "type": "router"
        },
        "atla": {
            "region": "georgia",
            "power_dynamic": 1.704,
            "power_static": 0.0,
            "pue": 1.0,
            "capacity": 10,
            "endpoint": true,
            "type": "router"
        },
        "chic": {
            "region": "illinois",
            "power_dynamic": 2.352,
            "power_static": 0.0,
            "pue": 1.0,
            "capacity": 10,
            "endpoint": true,
            "type": "router"
        },
        "denv": {
            "region": "colorado",
            "power_dynamic": 1.992,
            "power_static": 0.0,
            "pue": 1.0,
            "capacity": 10,
            "endpoint": true,
            "type": "router"
        },
        "elpa": {
            "region": "texas",
            "power_dynamic": 1.56,
            "power_static": 0.0,
            "pue": 1.0,
            "capacity": 10,
            "endpoint": true,
            "type": "router"
        },
        "hous": {
            "region": "texas",
            "power_dynamic": 1.56,
            "power_static": 0.0,
            "pue": 1.0,
            "capacity": 10,
            "endpoint": true,
            "type": "router"
        },
        "kans": {
            "region": "kansas",
            "power_dynamic": 1.536,
            "power_static": 0.0,
            "pue": 1.0,
            "capacity": 10,
            "endpoint": true,
            "type": "router"
        },
        "lbnl": {
            "region": "california",
            "power_dynamic": 2.152,
            "power_static": 0.0,
            "pue": 1.0,
            "capacity": 10,
            "endpoint": true,
            "type": "router"
        },
        "nash": {
            "region": "tennessee",
            "power_dynamic": 1.656,
            "power_static": 0.0,
            "pue": 1.0,
            "capacity": 10,
            "endpoint": true,
            "type": "router"
        },
        "newy": {
            "region": "nystate",
            "power_dynamic": 1.848,
            "power_static": 0.0,
            "pue": 1.0,
            "capacity": 10,
            "endpoint": true,
            "type": "router"
        },
        "sacr": {
            "region": "california",
            "power_dynamic": 1.728,
            "power_static": 0.0,
            "pue": 1.0,
            "capacity": 10,
            "endpoint": true,
            "type": "router"
        },
        "star": {
            "region": "illinois",
            "power_dynamic": 3.552,
            "power_static": 0.0,
            "pue": 1.0,
            "capacity": 10,
            "endpoint": true,
            "type": "router"
        },
        "sunn": {
            "region": "california",
            "power_dynamic": 3.504,
            "power_static": 0.0,
            "pue": 1.0,
            "capacity": 10,
            "endpoint": true,
            "type": "router"
        },
        "wash": {
            "region": "maryland",
            "power_dynamic": 2.304,
            "power_static": 0.0,
            "pue": 1.0,
            "capacity": 10,
            "endpoint": true,
            "type": "router"
        }
    }
}
